<?xml version="1.0" encoding="UTF-8"?>
<svg width="32px" height="32px" viewBox="0 0 32 32" version="1.1" xmlns="http://www.w3.org/2000/svg" xmlns:xlink="http://www.w3.org/1999/xlink">
    <!-- Generator: Sketch 63.1 (92452) - https://sketch.com -->
    <title>cube</title>
    <desc>Created with Sketch.</desc>
    <g id="Page-1" stroke="none" stroke-width="1" fill="none" fill-rule="evenodd">
        <g id="Case-1.1" transform="translate(-351.000000, -1208.000000)" fill="#FFFFFF">
            <g id="Group-Copy-3" transform="translate(250.000000, 1128.000000)">
                <g id="Group-11" transform="translate(0.000000, 56.000000)">
                    <g id="Group-10">
                        <g id="Group-12" transform="translate(67.000000, 24.000000)">
                            <g id="cube" transform="translate(34.000000, 0.000000)">
                                <path d="M31.9781333,6.67771576 C31.9738667,6.66250277 31.9669333,6.64886353 31.9610667,6.63469972 C31.9493333,6.60479832 31.9365333,6.5759461 31.9194667,6.54866763 C31.9098667,6.53345464 31.8997333,6.51981541 31.8885333,6.50565159 C31.8704,6.48152064 31.8501333,6.45948804 31.8272,6.43902919 C31.8138667,6.42643913 31.8005333,6.41489824 31.7856,6.40388194 C31.7770667,6.39758691 31.7706667,6.38971812 31.7621333,6.38394767 C31.7424,6.37083303 31.7205333,6.36348882 31.6997333,6.35299711 C31.6890667,6.34775125 31.6810667,6.33988246 31.6698667,6.33516119 L16.2032,0.0401308186 C16.072,-0.0133769395 15.9258667,-0.0133769395 15.7946667,0.0401308186 L0.328,6.33516119 C0.3168,6.33988246 0.308266667,6.34775125 0.2976,6.35299711 C0.2768,6.36296424 0.255466667,6.37083303 0.236266667,6.38342309 C0.227733333,6.38919353 0.221333333,6.39706232 0.2128,6.40335735 C0.197866667,6.41437365 0.185066667,6.42643913 0.171733333,6.4385046 C0.149333333,6.45896345 0.129066667,6.48099606 0.1104,6.50512701 C0.0992,6.51929083 0.0890666667,6.53293006 0.0794666667,6.54814305 C0.0624,6.57542151 0.0496,6.60427374 0.0378666667,6.63417513 C0.032,6.64886353 0.0250666667,6.66197818 0.0208,6.67719117 C0.00853333333,6.72335473 0,6.77109204 0,6.81987853 L0,25.1803838 C0,25.392841 0.130133333,25.5843149 0.329066667,25.6651011 L15.7957333,31.9601315 C15.8026667,31.9627544 15.8101333,31.9617052 15.8170667,31.9643282 C15.8762667,31.9858362 15.9370667,32 16,32 C16.0629333,32 16.1237333,31.9858362 16.1829333,31.9643282 C16.1898667,31.9617052 16.1973333,31.9627544 16.2042667,31.9601315 L31.6709333,25.6651011 C31.8698667,25.5843149 32,25.392841 32,25.1803838 L32,6.81987853 C32,6.77109204 31.9914667,6.72335473 31.9781333,6.67771576 Z M15.4666667,30.6901091 L1.06666667,24.8299604 L1.06666667,7.60465898 L15.4666667,13.4653323 L15.4666667,30.6901091 Z M16,12.547307 L1.928,6.81987853 L16,1.09245006 L30.072,6.81987853 L16,12.547307 Z M30.9333333,24.8299604 L16.5333333,30.6906337 L16.5333333,13.4653323 L30.9333333,7.60465898 L30.9333333,24.8299604 Z" id="Shape"></path>
                            </g>
                        </g>
                    </g>
                </g>
            </g>
        </g>
    </g>
</svg>