<?xml version="1.0" encoding="UTF-8"?>
<svg width="75px" height="58px" viewBox="0 0 75 58" version="1.1" xmlns="http://www.w3.org/2000/svg" xmlns:xlink="http://www.w3.org/1999/xlink">
    <!-- Generator: sketchtool 61 (101010) - https://sketch.com -->
    <title>56F4B608-7F74-4E7E-8563-E0AECBB87AE7</title>
    <desc>Created with sketchtool.</desc>
    <g id="Page-1" stroke="none" stroke-width="1" fill="none" fill-rule="evenodd" opacity="0.699999988">
        <g id="Desktop-HD-(1)" transform="translate(-1115.000000, -7383.000000)" fill="#B3B3B3">
            <g id="Screen-5" transform="translate(0.000000, 6275.000000)">
                <g id="Trusted-by" transform="translate(250.000000, 960.000000)">
                    <g id="mastercard-2" transform="translate(865.000000, 148.000000)">
                        <path d="M73.2779348,57.1996005 L73.2779348,57.35019 L73.4170853,57.35019 C73.4432067,57.3506127 73.4689656,57.343984 73.4916968,57.3309898 C73.5101155,57.3178342 73.5206535,57.2961398 73.5196762,57.2733893 C73.5206324,57.2510572 73.510041,57.2298229 73.4916968,57.2172947 C73.4692249,57.2036622 73.443282,57.1969862 73.4170853,57.1980946 L73.2779348,57.1980946 L73.2779348,57.1996005 Z M73.4185775,57.0930584 C73.4782214,57.0893603 73.5372894,57.1066576 73.5857074,57.142 C73.62507,57.1745361 73.646803,57.223988 73.6442774,57.2752717 C73.6460713,57.3193136 73.6289369,57.3619929 73.5972722,57.3923551 C73.5599272,57.4251212 73.5130714,57.4448012 73.4637175,57.4484497 L73.6502464,57.6630398 L73.5066191,57.6630398 L73.3350126,57.4499556 L73.279427,57.4499556 L73.279427,57.6630398 L73.1593024,57.6630398 L73.1593024,57.0934348 L73.4204428,57.0934348 L73.4185775,57.0930584 Z M73.3812718,57.8595591 C73.4442738,57.8601576 73.5066915,57.8473288 73.5644431,57.8219117 C73.6201248,57.7977233 73.6707593,57.7631043 73.7136662,57.7198873 C73.7566545,57.676724 73.7909821,57.6255921 73.8147648,57.5692978 C73.86372,57.4499728 73.86372,57.3159136 73.8147648,57.1965887 C73.7906319,57.1404879 73.7563466,57.0894189 73.7136662,57.0459991 C73.670742,57.0028033 73.6201118,56.9681872 73.5644431,56.9439747 C73.5063439,56.919941 73.4440591,56.9079077 73.3812718,56.9085862 C73.317403,56.9079873 73.2540355,56.9200094 73.1947429,56.9439747 C73.1378261,56.9677106 73.0860097,57.0023581 73.0421623,57.0459991 C72.9072559,57.1856471 72.8680487,57.3931107 72.9425559,57.5730625 C72.9652747,57.6295671 72.9991665,57.6808063 73.0421623,57.7236521 C73.0860336,57.7672635 73.1378439,57.8019069 73.1947429,57.8256765 C73.2536796,57.8510779 73.3171876,57.8638958 73.3812718,57.8633239 M73.3812718,56.7715497 C73.5452271,56.7713821 73.7026715,56.8362887 73.8196146,56.9522571 C73.8759978,57.00794 73.9208837,57.0743499 73.951677,57.1476471 C74.0161077,57.2997356 74.0161077,57.4717979 73.951677,57.6238865 C73.9201598,57.6967822 73.8753633,57.7630599 73.8196146,57.8192764 C73.7623778,57.874661 73.6957985,57.9192837 73.6230131,57.9510423 C73.5465805,57.9838133 73.4643155,58.0004682 73.3812718,57.9999839 C73.2972511,58.0005931 73.2139864,57.9839413 73.1365459,57.9510423 C73.0629226,57.920023 72.9957268,57.8753263 72.9384523,57.8192764 C72.8827065,57.7610011 72.8385143,57.6925085 72.8082551,57.6174864 C72.7438244,57.4653979 72.7438244,57.2933356 72.8082551,57.141247 C72.8390484,57.0679499 72.8839343,57.00154 72.9403176,56.9458571 C72.9968163,56.8888396 73.0642126,56.8440096 73.1384112,56.8140912 C73.2158517,56.7811922 73.2991164,56.7645405 73.383137,56.7651496 M16.2586761,54.571813 C16.2586761,53.4856859 16.9637552,52.5934429 18.1161305,52.5934429 C19.2173968,52.5934429 19.9605277,53.4472856 19.9605277,54.571813 C19.9605277,55.6963404 19.2173968,56.5501831 18.1161305,56.5501831 C16.9637552,56.5501831 16.2586761,55.65794 16.2586761,54.571813 M21.2158669,54.571813 L21.2158669,51.4809627 L19.884424,51.4809627 L19.884424,52.2339104 C19.4621227,51.677482 18.8215826,51.3284908 17.9504928,51.3284908 C16.2344274,51.3284908 14.8876891,52.6868084 14.8876891,54.5733189 C14.8876891,56.4598293 16.2336813,57.818147 17.9504928,57.818147 C18.8212095,57.818147 19.4621227,57.4687793 19.884424,56.9127274 L19.884424,57.6630398 L21.2143747,57.6630398 L21.2143747,54.571813 L21.2158669,54.571813 Z M66.2036415,54.571813 C66.2036415,53.4856859 66.9087206,52.5934429 68.0614689,52.5934429 C69.1638544,52.5934429 69.9058662,53.4472856 69.9058662,54.571813 C69.9058662,55.6963404 69.1638544,56.5501831 68.0614689,56.5501831 C66.9090937,56.5501831 66.2036415,55.65794 66.2036415,54.571813 M71.1623245,54.571813 L71.1623245,49 L69.8297624,49 L69.8297624,52.2339104 C69.4074611,51.677482 68.766921,51.3284908 67.8958313,51.3284908 C66.1797658,51.3284908 64.8330275,52.6868084 64.8330275,54.5733189 C64.8330275,56.4598293 66.1790197,57.818147 67.8958313,57.818147 C68.766921,57.818147 69.4074611,57.4687793 69.8297624,56.9127274 L69.8297624,57.6630398 L71.1623245,57.6630398 L71.1623245,54.571813 Z M37.740831,52.5298188 C38.5988637,52.5298188 39.1498699,53.0726941 39.2905127,54.0285612 L36.1135533,54.0285612 C36.2556882,53.1363182 36.7925183,52.5298188 37.741204,52.5298188 M37.7676911,51.3251025 C35.9732836,51.3251025 34.7179444,52.642761 34.7179444,54.5699306 C34.7179444,56.5347476 36.0236464,57.8147587 37.8568519,57.8147587 C38.7790506,57.8147587 39.6236532,57.5824744 40.3667841,56.9488689 L39.7143062,55.9530955 C39.2009788,56.3672168 38.5473817,56.5995011 37.9329557,56.5995011 C37.074923,56.5995011 36.2937401,56.1985565 36.1016154,55.0860763 L40.6480697,55.0860763 C40.6611267,54.9189219 40.6745567,54.7502616 40.6745567,54.5695541 C40.6611267,52.6431375 39.4807721,51.324726 37.766945,51.324726 M53.8420015,54.5695541 C53.8420015,53.4834271 54.5470805,52.5911841 55.6994558,52.5911841 C56.8007221,52.5911841 57.5438531,53.4450268 57.5438531,54.5695541 C57.5438531,55.6940815 56.8007221,56.5479242 55.6994558,56.5479242 C54.5470805,56.5479242 53.8416284,55.6556812 53.8416284,54.5695541 M58.7988192,54.5695541 L58.7988192,51.4809627 L57.4681223,51.4809627 L57.4681223,52.2339104 C57.0443288,51.677482 56.4052809,51.3284908 55.5341912,51.3284908 C53.8181258,51.3284908 52.4713875,52.6868084 52.4713875,54.5733189 C52.4713875,56.4598293 53.8173797,57.818147 55.5341912,57.818147 C56.4052809,57.818147 57.0443288,57.4687793 57.4681223,56.9127274 L57.4681223,57.6630398 L58.7991922,57.6630398 L58.7991922,54.571813 L58.7988192,54.5695541 Z M46.3230234,54.5695541 C46.3230234,56.4440174 47.6160414,57.8143823 49.5895167,57.8143823 C50.5117153,57.8143823 51.1261414,57.6073216 51.7905571,57.0776229 L51.1511362,55.9914959 C50.6512389,56.3540402 50.1263467,56.5479242 49.5469881,56.5479242 C48.4841467,56.5347476 47.7025908,55.7592115 47.7025908,54.5695541 C47.7025908,53.3798968 48.4841467,52.6047371 49.5469881,52.5911841 C50.1248545,52.5911841 50.6497467,52.7850681 51.1511362,53.1476124 L51.7905571,52.0614854 C51.1250222,51.5317866 50.5105962,51.324726 49.5895167,51.324726 C47.6160414,51.324726 46.3230234,52.6947144 46.3230234,54.5695541 M63.4874084,51.324726 C62.7192826,51.324726 62.2190122,51.6872703 61.8731877,52.2301456 L61.8731877,51.4809627 L60.5536826,51.4809627 L60.5536826,57.6596515 L61.8866178,57.6596515 L61.8866178,54.1960921 C61.8866178,53.1735891 62.3219761,52.6054901 63.1923198,52.6054901 C63.4773242,52.6013387 63.7603221,52.654183 64.0249845,52.7609738 L64.435348,51.4945157 C64.1406324,51.3774324 63.756383,51.3258554 63.4866623,51.3258554 M27.7984701,51.972261 C27.15793,51.5460927 26.2752755,51.3258554 25.3015949,51.3258554 C23.750421,51.3258554 22.7517455,52.0761678 22.7517455,53.3038491 C22.7517455,54.3112931 23.4952495,54.9328514 24.8643713,55.1267354 L25.4933465,55.2170892 C26.2234205,55.3206195 26.5681258,55.5145035 26.5681258,55.8634948 C26.5681258,56.3412401 26.0831508,56.6138072 25.1725169,56.6138072 C24.2503183,56.6138072 23.5847833,56.3163928 23.1359949,55.9674016 L22.5103771,57.0151283 C23.2404511,57.5580036 24.1626497,57.8170176 25.1613252,57.8170176 C26.9296187,57.8170176 27.9544082,56.9767279 27.9544082,55.8002472 C27.9544082,54.7141201 27.1478575,54.1460211 25.8152953,53.952137 L25.1878123,53.8602774 C24.6114381,53.7849826 24.1495927,53.6678993 24.1495927,53.253778 C24.1495927,52.8020094 24.584951,52.5301953 25.315398,52.5301953 C26.0969539,52.5301953 26.8535149,52.8276096 27.2243343,53.059894 L27.8007084,51.9737669 L27.7984701,51.972261 Z M44.9781504,51.3269849 C44.2100246,51.3269849 43.7097542,51.6895292 43.365422,52.2324045 L43.365422,51.4809627 L42.0459169,51.4809627 L42.0459169,57.6596515 L43.3773598,57.6596515 L43.3773598,54.1960921 C43.3773598,53.1735891 43.8127182,52.6054901 44.6830618,52.6054901 C44.9680662,52.6013387 45.2510641,52.654183 45.5157266,52.7609738 L45.92609,51.4945157 C45.6313745,51.3774324 45.247125,51.3258554 44.9774043,51.3258554 M33.616305,51.4809627 L31.4391402,51.4809627 L31.4391402,49.6064994 L30.093148,49.6064994 L30.093148,51.4809627 L28.8512389,51.4809627 L28.8512389,52.7090204 L30.093148,52.7090204 L30.093148,55.5276801 C30.093148,56.9612925 30.6445273,57.8151352 32.2195769,57.8151352 C32.7974433,57.8151352 33.4629783,57.6344278 33.8852796,57.3373899 L33.5006571,56.1868858 C33.1033506,56.4191702 32.6679923,56.5362535 32.3217948,56.5362535 C31.6562598,56.5362535 31.4391402,56.1221323 31.4391402,55.5020799 L31.4391402,52.7101498 L33.616305,52.7101498 L33.616305,51.4809627 Z M13.710319,57.6611574 L13.710319,53.7834767 C13.710319,52.3231347 12.7881203,51.3405379 11.3014854,51.3273613 C10.5199295,51.3141848 9.71375179,51.5596457 9.14931549,52.426665 C8.72701417,51.7414826 8.06147922,51.3273613 7.1258505,51.3273613 C6.47188035,51.3273613 5.8328325,51.5212454 5.33256212,52.2448281 L5.33256212,51.4809627 L4,51.4809627 L4,57.6596515 L5.34300773,57.6596515 L5.34300773,54.2337395 C5.34300773,53.1611655 5.93243891,52.5911841 6.8426997,52.5911841 C7.72684646,52.5911841 8.17414265,53.1728362 8.17414265,54.2201864 L8.17414265,57.6588986 L9.52013484,57.6588986 L9.52013484,54.2329865 C9.52013484,53.1604125 10.1345609,52.5904311 11.0183346,52.5904311 C11.9274762,52.5904311 12.3613423,53.1720832 12.3613423,54.2194335 L12.3613423,57.6581456 L13.710319,57.6611574 Z" id="Shape"></path>
                        <path d="M73.9992324,38 L73.9992324,37 L73.7593552,37 L73.4818653,37.68625 L73.2059106,37 L72.9652658,37 L72.9652658,38 L73.1356745,38 L73.1356745,37.2466667 L73.3951257,37.8966667 L73.5716753,37.8966667 L73.8311265,37.245 L73.8311265,38 L74,38 L73.9992324,38 Z M72.4774515,38 L72.4774515,37.17125 L72.7844943,37.17125 L72.7844943,37.0025 L72,37.0025 L72,37.17125 L72.3070428,37.17125 L72.3070428,38 L72.4759163,38 L72.4774515,38 Z" id="Shape"></path>
                        <polygon id="Path" points="46.9996302 41 27 41 27 5 47 5"></polygon>
                        <path d="M28.2654561,23 C28.2654561,15.6639837 31.6809887,9.1290248 37,4.91761509 C32.9736924,1.72509608 27.9942233,-0.00759337636 22.8672719,0 C10.2377186,0 0,10.2973106 0,23 C0,35.7026889 10.2377186,46 22.8672719,46 C27.9943501,46.0076766 32.9739628,44.2749826 37,41.0823844 C31.6817286,36.8717188 28.2654561,30.3363878 28.2654561,23" id="Path"></path>
                        <path d="M75,23 C75,35.7026894 64.7627932,46 52.1338713,46 C47.0065077,46.0075431 42.0266012,44.2748869 38,41.0823851 C43.3198552,36.8709752 46.7352171,30.3363881 46.7352171,23 C46.7352171,15.6636114 43.3198552,9.12902427 38,4.91761441 C42.0265017,1.72519172 47.0062645,-0.00745984067 52.1335013,0 C64.7624233,0 75,10.2973101 75,23" id="Path"></path>
                    </g>
                </g>
            </g>
        </g>
    </g>
</svg>