<?xml version="1.0" encoding="UTF-8"?>
<svg width="24px" height="24px" viewBox="0 0 24 24" version="1.1" xmlns="http://www.w3.org/2000/svg" xmlns:xlink="http://www.w3.org/1999/xlink">
    <!-- Generator: sketchtool 61.2 (101010) - https://sketch.com -->
    <title>3BE597E5-065C-4E0B-AC26-30C2AB600099</title>
    <desc>Created with sketchtool.</desc>
    <g id="Asset-Artboard-Page" stroke="none" stroke-width="1" fill="none" fill-rule="evenodd">
        <g id="icon/arrow" transform="translate(12.000000, 12.000000) rotate(-90.000000) translate(-12.000000, -12.000000) " fill="#FFFFFF">
            <polygon id="Path" transform="translate(11.500000, 12.000000) rotate(-270.000000) translate(-11.500000, -12.000000) " points="2.84018672 6.5 11.4996764 14.9553052 15.942734 10.6172008 20.1595436 6.5 21.5 7.73487501 11.4996764 17.5 1.5 7.73487501"></polygon>
        </g>
    </g>
</svg>