<?xml version="1.0" encoding="UTF-8"?>
<svg width="24px" height="24px" viewBox="0 0 24 24" version="1.1" xmlns="http://www.w3.org/2000/svg" xmlns:xlink="http://www.w3.org/1999/xlink">
    <!-- Generator: sketchtool 61.2 (101010) - https://sketch.com -->
    <title>7FD4ADE6-4FD4-44E5-8168-62DFB872AC9E</title>
    <desc>Created with sketchtool.</desc>
    <g id="Asset-Artboard-Page" stroke="none" stroke-width="1" fill="none" fill-rule="evenodd">
        <g id="icon/mail" fill="#FFFFFF">
            <path d="M22,9 C22,8.3 21.6,7.7 21.1,7.3 L12,2 L2.9,7.3 C2.4,7.7 2,8.3 2,9 L2,19 C2,20.1 2.9,21 4,21 L20,21 C21.1,21 22,20.1 22,19 L22,9 L22,9 Z M12,14 L3.7,8.8 L12,4 L20.3,8.8 L12,14 L12,14 Z" id="Shape"></path>
        </g>
    </g>
</svg>