<?xml version="1.0" encoding="UTF-8"?>
<svg width="24px" height="24px" viewBox="0 0 24 24" version="1.1" xmlns="http://www.w3.org/2000/svg" xmlns:xlink="http://www.w3.org/1999/xlink">
    <!-- Generator: sketchtool 61.2 (101010) - https://sketch.com -->
    <title>A5F07E1E-46B2-4824-99E6-1EB4AAAF9E22</title>
    <desc>Created with sketchtool.</desc>
    <g id="Asset-Artboard-Page" stroke="none" stroke-width="1" fill="none" fill-rule="evenodd">
        <g id="icon/linkedin" fill="#FFFFFF">
            <path d="M17.0325,7.31166667 C21.2275,7.31166667 22,10.0758333 22,13.6641667 L22,13.6641667 L22,20.9991667 L21.995,20.9991667 L21.995,21 L17.8575,21 L17.8573443,14.3527245 C17.8534774,12.8277734 17.7594531,10.9633333 15.7016667,10.9633333 C13.5458333,10.9633333 13.2158333,12.6466667 13.2158333,14.3875 L13.2158333,14.3875 L13.2158333,20.9991667 L9.07416667,20.9991667 L9.07416667,7.64666667 L13.0516667,7.64666667 L13.0516667,9.4675 L13.11,9.4675 C13.6625,8.41833333 15.0158333,7.31166667 17.0325,7.31166667 Z M6.47666667,7.6475 L6.47666667,21 L2.33,21 L2.33,7.6475 L6.47666667,7.6475 Z M4.40166667,1 C5.72666667,1 6.8025,2.07583333 6.80333333,3.40166667 C6.80333333,4.7275 5.7275,5.82583333 4.40166667,5.82583333 C3.07583333,5.82583333 2,4.7275 2,3.40166667 C2,2.07583333 3.07583333,1 4.40166667,1 Z" id="Combined-Shape"></path>
        </g>
    </g>
</svg>