<?xml version="1.0" encoding="UTF-8"?>
<svg width="279px" height="357px" viewBox="0 0 279 357" version="1.1" xmlns="http://www.w3.org/2000/svg" xmlns:xlink="http://www.w3.org/1999/xlink">
    <!-- Generator: Sketch 62 (91390) - https://sketch.com -->
    <title>play-arrow</title>
    <desc>Created with Sketch.</desc>
    <g id="Page-1" stroke="none" stroke-width="1" fill="none" fill-rule="evenodd">
        <g id="iPhone-8" transform="translate(-96.000000, -299.000000)" fill="#FFFFFF" fill-rule="nonzero">
            <g id="play-arrow" transform="translate(96.000000, 299.000000)">
                <polygon id="Path" points="0.25 0 0.25 357 280.75 178.5"></polygon>
            </g>
        </g>
    </g>
</svg>