<?xml version="1.0" encoding="UTF-8"?>
<svg width="16px" height="16px" viewBox="0 0 16 16" version="1.1" xmlns="http://www.w3.org/2000/svg" xmlns:xlink="http://www.w3.org/1999/xlink">
    <!-- Generator: Sketch 63.1 (92452) - https://sketch.com -->
    <title>icon/out-link</title>
    <desc>Created with Sketch.</desc>
    <g id="Page-1" stroke="none" stroke-width="1" fill="none" fill-rule="evenodd" opacity="0.699999988">
        <g id="Case-1.1" transform="translate(-789.000000, -1791.000000)" fill="#F4214E" fill-rule="nonzero">
            <g id="Group-Copy-4" transform="translate(730.000000, 1735.000000)">
                <g id="Group-4" transform="translate(0.000000, 48.000000)">
                    <g id="icon/out-link" transform="translate(59.000000, 8.000000)">
                        <path d="M8,3.33333333 L8,4.66666667 L2,4.66666667 L2,14 L11.3333333,14 L11.3333333,8 L12.6666667,8 L12.6666667,15.3333333 L0.666666667,15.3333333 L0.666666667,3.33333333 L8,3.33333333 Z M15.3333333,0.666666667 L15.3333333,6.66666667 L14,6.66666667 L14,2.94266667 L7.13807119,9.80473785 L6.19526215,8.86192881 L13.056,2 L9.33333333,2 L9.33333333,0.666666667 L15.3333333,0.666666667 Z" id="Combined-Shape"></path>
                    </g>
                </g>
            </g>
        </g>
    </g>
</svg>